…
``` r
# Number of evictions, by month and location, total
evictions_data %>% 
  group_by(location, file_month) %>%
  count()
```

    ## # A tibble: 77 x 3
    ## # Groups:   location, file_month [77]
    ##    location   file_month     n
    ##    <chr>           <dbl> <int>
    ##  1 chatham_ga          1  1042
    ##  2 chatham_ga          2   945
    ##  3 chatham_ga          3   498
    ##  4 chatham_ga          4    69
    ##  5 chatham_ga          5   122
    ##  6 chatham_ga          6   238
    ##  7 chatham_ga          7    11
    ##  8 dekalb_ga           1  3194
    ##  9 dekalb_ga           2  3006
    ## 10 dekalb_ga           3  1913
    ## # … with 67 more rows
…
``` r
# Number of writs FILED, by location and month
writ_data %>%
  # Filter for cases with writ filing dates
  filter(!(is.na(writ_date))&(writ_date != "no_information")) %>%
  group_by(location, writ_month) %>%
  count()
```

    ## # A tibble: 21 x 3
    ## # Groups:   location, writ_month [21]
    ##    location        writ_month     n
    ##    <chr>           <chr>      <int>
    ##  1 fulton_ga       01            69
    ##  2 fulton_ga       02           771
    ##  3 fulton_ga       03           408
    ##  4 fulton_ga       06             1
    ##  5 hillsborough_fl 01            79
    ##  6 hillsborough_fl 02           510
    ##  7 hillsborough_fl 03           413
    ##  8 hillsborough_fl 04            63
    ##  9 hillsborough_fl 05            14
    ## 10 hillsborough_fl 06             3
    ## # … with 11 more rows

``` r
# Number of writs SERVED, by location and month
writ_data %>%
  # Filter for cases with writ filing dates
  filter(!(is.na(writ_served_date))&(writ_served_date != "no_information")) %>%
  group_by(location, writ_served_month) %>%
  count()
```

    ## # A tibble: 23 x 3
    ## # Groups:   location, writ_served_month [23]
    ##    location        writ_served_month     n
    ##    <chr>           <chr>             <int>
    ##  1 dekalb_ga       01                   28
    ##  2 dekalb_ga       02                  743
    ##  3 dekalb_ga       03                  418
    ##  4 dekalb_ga       05                  278
    ##  5 dekalb_ga       06                   13
    ##  6 hillsborough_fl 01                   29
    ##  7 hillsborough_fl 02                  249
    ##  8 hillsborough_fl 03                  328
    ##  9 hillsborough_fl 04                    5
    ## 10 hillsborough_fl 05                   11
    ## # … with 13 more rows
…
``` r
# Number of evictions, by month and location, since Cares
evictions_data %>% 
  filter(file_date > "2020-03-27") %>%
  group_by(location, file_month) %>%
  count()
```

    ## # A tibble: 46 x 3
    ## # Groups:   location, file_month [46]
    ##    location   file_month     n
    ##    <chr>           <dbl> <int>
    ##  1 chatham_ga          3    26
    ##  2 chatham_ga          4    69
    ##  3 chatham_ga          5   122
    ##  4 chatham_ga          6   238
    ##  5 chatham_ga          7    11
    ##  6 dekalb_ga           3    44
    ##  7 dekalb_ga           4   321
    ##  8 dekalb_ga           5   312
    ##  9 dekalb_ga           6   333
    ## 10 fulton_ga           3    45
    ## # … with 36 more rows
…
